{
  "routes": [
    {
      "method": "GET",
      "path": "/workspaces",
      "handler": "Workspaces.find",
      "config": {
        "policies": []
      }
    },
    {
      "method": "GET",
      "path": "/workspaces/count",
      "handler": "Workspaces.count",
      "config": {
        "policies": []
      }
    },
    {
      "method": "GET",
      "path": "/workspaces/:_id",
      "handler": "Workspaces.findOne",
      "config": {
        "policies": []
      }
    },
    {
      "method": "POST",
      "path": "/workspaces",
      "handler": "Workspaces.create",
      "config": {
        "policies": []
      }
    },
    {
      "method": "PUT",
      "path": "/workspaces/:_id",
      "handler": "Workspaces.update",
      "config": {
        "policies": []
      }
    },
    {
      "method": "DELETE",
      "path": "/workspaces/:_id",
      "handler": "Workspaces.destroy",
      "config": {
        "policies": []
      }
    }
  ]
}
